Number of particles,GPS measure uncertainty,,,Landmark measure uncertainty,,Particle error,,,Time to success (s)
,x,y,yaw,x,y,x,y,yaw,
,,,,,,,,,
11,0.1,0.1,0.005,0.1,0.1,0.2,0.1,0.004,49.54
11,3,3,0.1,3,3,Error too large,,,
25,0.1,0.1,0.005,0.1,0.1,0.08,0.08,0.003,68.9
25,3,3,0.1,3,3,0.8,0.8,0.03,67.68
45,0.1,0.1,0.005,0.1,0.1,0.08,0.08,0.003,95.74
45,3,3,0.1,3,3,0.8,0.8,0.03,92.8
